Max Czapanskiy | Ecology and Data Science - Python and R together with reticulate
…
--- Compiling #TidyTuesday Information for 2023-03-07 ----

--- There is 1 file available ---

--- Starting Download ---

    Downloading file 1 of 1: `numbats.csv`

--- Download complete ---

numbats <- numbats_tidytuesday$numbats
numbats

# A tibble: 805 × 16
   decimalLatitude decimalLongitude eventDate           scientificName       
             <dbl>            <dbl> <dttm>              <chr>                
 1           -37.6             146. NA                  Myrmecobius fasciatus
 2           -35.1             150. 2014-06-05 02:00:00 Myrmecobius fasciatus
 3           -35               118. NA                  Myrmecobius fasciatus
 4           -34.7             118. NA                  Myrmecobius fasciatus
 5           -34.6             117. NA                  Myrmecobius fasciatus
 6           -34.6             117. NA                  Myrmecobius fasciatus
 7           -34.6             118. NA                  Myrmecobius fasciatus
 8           -34.6             117. NA                  Myrmecobius fasciatus
 9           -34.6             117. NA                  Myrmecobius fasciatus
10           -34.6             117. NA                  Myrmecobius fasciatus
# … with 795 more rows, and 12 more variables: taxonConceptID <chr>,
#   recordID <chr>, dataResourceName <chr>, year <dbl>, month <chr>,
#   wday <chr>, hour <dbl>, day <date>, dryandra <lgl>, prcp <dbl>, tmax <dbl>,
#   tmin <dbl>
…
